…
booking
#> # A tibble: 10,000 × 8
#>    booker_id         property_id room_nights price_per_night
#>    <chr>                   <dbl>       <dbl>           <dbl>
#>  1 215934017ba98c09…        2668           4            91.5
#>  2 7f590fd6d318248a…        4656           5           107. 
#>  3 10f0f138e8bb1015…        4563           6            87.0
#>  4 7b55021a4160dde6…        4088           7            92.4
#>  5 6694a79d158c7818…        2188           4           105. 
#>  6 d0358740d5f15e85…        4171           2           110. 
#>  7 944e568a0b511b91…        2907           4           116. 
#>  8 95476c2ef6bb9e3c…        5141           4           111. 
#>  9 df235631a4c281c0…        1696           1           106. 
#> 10 ff610140227d40d2…        1901           7            82.3
#> # … with 9,990 more rows, and 4 more variables:
#> #   checkin_day <chr>, for_business <lgl>, status <chr>,
#> #   review_score <dbl>
property
#> # A tibble: 4,178 × 5
#>    property_id destination property_type nr_rooms facilities
#>          <dbl> <chr>       <chr>            <dbl> <chr>     
#>  1        2668 Brisbane    Hotel               32 airport s…
#>  2        4656 Brisbane    Hotel               39 on-site r…
#>  3        4563 Brisbane    Apartment            9 laundry   
#>  4        4088 Brisbane    Apartment            9 kitchen,l…
#>  5        2188 Brisbane    Apartment            4 parking,k…
#>  6        4171 Brisbane    Apartment            5 kitchen,p…
#>  7        2907 Brisbane    Hotel               22 airport s…
#>  8        5141 Brisbane    Hotel               20 breakfast…
#>  9        1696 Brisbane    Apartment            5 free wifi…
#> 10        1901 Brisbane    Apartment           11 free wifi…
#> # … with 4,168 more rows
```

magrittr (pipe function, keyboard short cut: command+shift+m)
%>% 
select() and filter() functions help to extract data and study it


```r
x=booking %>% 
  select(review_score)
x  
#> # A tibble: 10,000 × 1
#>    review_score
#>           <dbl>
#>  1        NA   
#>  2        NA   
#>  3         6.26
#>  4         5.95
#>  5         6.43
#>  6        NA   
#>  7         7.60
#>  8        NA   
#>  9         6.97
#> 10        NA   
#> # … with 9,990 more rows

y=booking %>% 
  filter(status=='stayed'&!is.na(review_score))
y
#> # A tibble: 6,183 × 8
#>    booker_id         property_id room_nights price_per_night
#>    <chr>                   <dbl>       <dbl>           <dbl>
#>  1 10f0f138e8bb1015…        4563           6            87.0
#>  2 7b55021a4160dde6…        4088           7            92.4
#>  3 6694a79d158c7818…        2188           4           105. 
#>  4 944e568a0b511b91…        2907           4           116. 
#>  5 df235631a4c281c0…        1696           1           106. 
#>  6 5a1442f4c7237ec5…        2307           9            84.2
#>  7 39804a2e3fb2e4c6…        2907           6           112. 
#>  8 e150e559405ef29b…        2870           4           127. 
#>  9 4e9c7c21dfcf2758…        1674           5           102. 
#> 10 4a2b8eaf63613548…        2885           5            86.3
#> # … with 6,173 more rows, and 4 more variables:
#> #   checkin_day <chr>, for_business <lgl>, status <chr>,
#> #   review_score <dbl>

cheap=booking %>% 
  select(review_score,room_nights) %>% 
  filter(booking$price_per_night<80)
cheap
#> # A tibble: 434 × 2
#>    review_score room_nights
#>           <dbl>       <dbl>
#>  1         8.90           5
#>  2         5.87           6
#>  3        NA              4
#>  4        NA              7
#>  5         6.02           4
#>  6         9.64           6
#>  7        NA              3
#>  8        NA              4
#>  9         6.23           5
#> 10        NA              2
#> # … with 424 more rows
…
make a long data form


```r
long=mixed%>%
  pivot_longer(cols = 2:8, names_to = 'day',values_to = 'count')
long
#> # A tibble: 21 × 3
#>    destination day   count
#>    <chr>       <chr> <int>
#>  1 Amsterdam   fri    1074
#>  2 Amsterdam   mon     517
#>  3 Amsterdam   sat     889
#>  4 Amsterdam   sun     813
#>  5 Amsterdam   thu     667
#>  6 Amsterdam   tue     498
#>  7 Amsterdam   wed     542
#>  8 Brisbane    fri     162
#>  9 Brisbane    mon     133
#> 10 Brisbane    sat     114
#> # … with 11 more rows
```
…
hash the property id
we need to know map()function to do this. map(x,~.), where x = object and ~. is a function which goes through each vector


```r
library(digest)

property %>% 
  mutate(property_id=map_chr(property_id,digest))
#> # A tibble: 4,178 × 5
#>    property_id destination property_type nr_rooms facilities
#>    <chr>       <chr>       <chr>            <dbl> <chr>     
#>  1 c5fe5a36c3… Brisbane    Hotel               32 airport s…
#>  2 6abfc65c14… Brisbane    Hotel               39 on-site r…
#>  3 8740143b90… Brisbane    Apartment            9 laundry   
#>  4 e30b95c1ec… Brisbane    Apartment            9 kitchen,l…
#>  5 ab19240af8… Brisbane    Apartment            4 parking,k…
#>  6 b2efd881c3… Brisbane    Apartment            5 kitchen,p…
#>  7 d49c23b12c… Brisbane    Hotel               22 airport s…
#>  8 1fd9f14595… Brisbane    Hotel               20 breakfast…
#>  9 7319c32a43… Brisbane    Apartment            5 free wifi…
#> 10 a38cc66d5f… Brisbane    Apartment           11 free wifi…
#> # … with 4,168 more rows
```

list in data frame
If we have a column with multiple strings, we can split it in to vectors using strsplit()


```r
property %>% 
  mutate(facilities=strsplit(facilities,","))
#> # A tibble: 4,178 × 5
#>    property_id destination property_type nr_rooms facilities
#>          <dbl> <chr>       <chr>            <dbl> <list>    
#>  1        2668 Brisbane    Hotel               32 <chr [6]> 
#>  2        4656 Brisbane    Hotel               39 <chr [7]> 
#>  3        4563 Brisbane    Apartment            9 <chr [1]> 
#>  4        4088 Brisbane    Apartment            9 <chr [3]> 
#>  5        2188 Brisbane    Apartment            4 <chr [5]> 
#>  6        4171 Brisbane    Apartment            5 <chr [6]> 
#>  7        2907 Brisbane    Hotel               22 <chr [8]> 
#>  8        5141 Brisbane    Hotel               20 <chr [8]> 
#>  9        1696 Brisbane    Apartment            5 <chr [6]> 
#> 10        1901 Brisbane    Apartment           11 <chr [8]> 
#> # … with 4,168 more rows
property$facilities[1]
#> [1] "airport shuttle,free wifi,garden,breakfast,pool,on-site restaurant"
```

add a column with the number of facilities


```r
property %>%
  mutate(facilities=strsplit(facilities,",")) %>% 
  mutate(n_facility=map_int(facilities,length))
#> # A tibble: 4,178 × 6
#>    property_id destination property_type nr_rooms facilities
#>          <dbl> <chr>       <chr>            <dbl> <list>    
#>  1        2668 Brisbane    Hotel               32 <chr [6]> 
#>  2        4656 Brisbane    Hotel               39 <chr [7]> 
#>  3        4563 Brisbane    Apartment            9 <chr [1]> 
#>  4        4088 Brisbane    Apartment            9 <chr [3]> 
#>  5        2188 Brisbane    Apartment            4 <chr [5]> 
#>  6        4171 Brisbane    Apartment            5 <chr [6]> 
#>  7        2907 Brisbane    Hotel               22 <chr [8]> 
#>  8        5141 Brisbane    Hotel               20 <chr [8]> 
#>  9        1696 Brisbane    Apartment            5 <chr [6]> 
#> 10        1901 Brisbane    Apartment           11 <chr [8]> 
#> # … with 4,168 more rows, and 1 more variable:
#> #   n_facility <int>
```
